…
Now drop the rows with remaining missing values and variables with over
30% of missing values.

We can attribute the missing rows to smaller cities for which there
wasn’t enough data collected. Equally some countries such as Greenland
or city states might simply lack relevant information for certain
variables resulting in missing values.

``` r
col_imputed_na <- na.omit(col_imputed_country)
data <- select(col_imputed_na, -x28, -x29, -x40, -x43, -x50, -x51, -x52, -x53)
print(data)
```

    ## # A tibble: 4,849 × 50
    ## # Groups:   country [153]
    ##    city      country    x1    x2    x3    x4    x5    x6    x7    x8    x9   x10
    ##    <chr>     <chr>   <dbl> <dbl> <dbl> <dbl> <dbl> <dbl> <dbl> <dbl> <dbl> <dbl>
    ##  1 Weifang   China    2.85  14.2  5.34  1.14  2.14  3.46 0.71  0.28   1.78  1.07
    ##  2 Heze      China    3.35  20.9  4.98  1.16  2.52  4.27 0.5   0.25   1.78  2.53
    ##  3 Yantai    China    2.85  22.8  4.98  1.14  2.14  3.56 0.45  0.28   1.78  1.19
    ##  4 Huanggang China    3.35  20.9  5.01  1.16  2.52  3.32 0.466 0.290  1.85  1.57
    ##  5 Maoming   China    2.14  14.1  3.91  1.42  4.98  3.56 0.43  0.28   2.46  1.71
    ##  6 Nanchong  China    2.85  17.1  4.27  0.85  2.85  3.56 0.36  0.27   1.83  1.36
    ##  7 Yulin     China    2.35  21.4  4.48  1.16  2.85  4.02 0.65  0.3    1.57  1.67
    ##  8 Liaocheng China    3.35  20.9  5.12  1.16  2.52  2.28 0.45  0.28   1.35  1.57
    ##  9 Xiangyang China    2.85  17.1  4.98  0.71  2.52  4.27 0.69  0.28   1.42  1   
    ## 10 Dezhou    China    2.99  21.4  4.7   0.85  2.14  3.08 0.43  0.28   2.04  1.16
    ## # ℹ 4,839 more rows
    ## # ℹ 38 more variables: x11 <dbl>, x12 <dbl>, x13 <dbl>, x14 <dbl>, x15 <dbl>,
    ## #   x16 <dbl>, x17 <dbl>, x18 <dbl>, x19 <dbl>, x20 <dbl>, x21 <dbl>,
    ## #   x22 <dbl>, x23 <dbl>, x24 <dbl>, x25 <dbl>, x26 <dbl>, x27 <dbl>,
    ## #   x30 <dbl>, x31 <dbl>, x32 <dbl>, x33 <dbl>, x34 <dbl>, x35 <dbl>,
    ## #   x36 <dbl>, x37 <dbl>, x38 <dbl>, x39 <dbl>, x41 <dbl>, x42 <dbl>,
    ## #   x44 <dbl>, x45 <dbl>, x46 <dbl>, x47 <dbl>, x48 <dbl>, x49 <dbl>, …
…
